…
``` r
ny_noaa = 
  ny_noaa %>% 
  janitor::clean_names()%>%
  separate(date, into = c("year", "month", "day"), convert = TRUE) %>% 
  mutate(
    tmax = as.numeric(tmax),
    tmin = as.numeric(tmin),
    snow = round(snow))


ny_noaa
```

    ## # A tibble: 2,595,176 × 9
    ##    id           year month   day  prcp  snow  snwd  tmax  tmin
    ##    <chr>       <int> <int> <int> <int> <dbl> <int> <dbl> <dbl>
    ##  1 US1NYAB0001  2007    11     1    NA    NA    NA    NA    NA
    ##  2 US1NYAB0001  2007    11     2    NA    NA    NA    NA    NA
    ##  3 US1NYAB0001  2007    11     3    NA    NA    NA    NA    NA
    ##  4 US1NYAB0001  2007    11     4    NA    NA    NA    NA    NA
    ##  5 US1NYAB0001  2007    11     5    NA    NA    NA    NA    NA
    ##  6 US1NYAB0001  2007    11     6    NA    NA    NA    NA    NA
    ##  7 US1NYAB0001  2007    11     7    NA    NA    NA    NA    NA
    ##  8 US1NYAB0001  2007    11     8    NA    NA    NA    NA    NA
    ##  9 US1NYAB0001  2007    11     9    NA    NA    NA    NA    NA
    ## 10 US1NYAB0001  2007    11    10    NA    NA    NA    NA    NA
    ## # … with 2,595,166 more rows
…
